…
In the initial dataset, it appears that almost all of the animals are cats and dogs. A minor amount of other animal types are present.

    ## # A tibble: 4 x 2
    ##   animal_type counts
    ##   <chr>        <int>
    ## 1 Bird           339
    ## 2 Cat          29539
    ## 3 Dog          45366
    ## 4 Other         4428

In the initial dataset, it appears that there are 1919 unique breeds of dogs.

    ## # A tibble: 1,919 x 1
    ##    breed                      
    ##    <chr>                      
    ##  1 Spinone Italiano Mix       
    ##  2 Dachshund                  
    ##  3 Shetland Sheepdog          
    ##  4 Labrador Retriever/Pit Bull
    ##  5 Miniature Schnauzer Mix    
    ##  6 Lhasa Apso Mix             
    ##  7 Shetland Sheepdog Mix      
    ##  8 Dachshund Mix              
    ##  9 Border Collie Mix          
    ## 10 Chihuahua Shorthair        
    ## # ... with 1,909 more rows

In the initial dataset, there are 337 unique color combinations of dogs.

    ## # A tibble: 337 x 1
    ##    color       
    ##    <chr>       
    ##  1 Yellow/White
    ##  2 Tricolor    
    ##  3 Brown/White 
    ##  4 Black/White 
    ##  5 Black/Gray  
    ##  6 White/Black 
    ##  7 Black/Tan   
    ##  8 Tan/Black   
    ##  9 Black       
    ## 10 Gold/Gold   
    ## # ... with 327 more rows
…
